Quartus_Processor/src/wave.vcd
$date
	Sat Jan 27 22:50:58 2024
$end
$version
	Icarus Verilog
$end
$timescale
	1s
$end
$scope module top_tb $end
$var reg 1 ! clk $end
$var reg 1 " rst $end
$scope module TEST $end
$var wire 1 ! clk $end
$var wire 1 " rst $end
$var wire 32 # WriteDataM [31:0] $end
$var wire 1 $ StallF $end
$var wire 1 % StallD $end
$var wire 5 & Rs2D [4:0] $end
$var wire 5 ' Rs1D [4:0] $end
$var wire 32 ( ResultW [31:0] $end
$var wire 2 ) ResultSrcW [1:0] $end
$var wire 2 * ResultSrcM [1:0] $end
$var wire 2 + ResultSrcE [1:0] $end
$var wire 1 , RegWriteW $end
$var wire 1 - RegWriteM $end
$var wire 1 . RegWriteE $end
$var wire 32 / ReadDataW [31:0] $end
$var wire 5 0 RS2_E [4:0] $end
$var wire 5 1 RS1_E [4:0] $end
$var wire 5 2 RDW [4:0] $end
$var wire 5 3 RDM [4:0] $end
$var wire 5 4 RDE [4:0] $end
$var wire 32 5 RD2E [31:0] $end
$var wire 32 6 RD1E [31:0] $end
$var wire 32 7 PCTargetE [31:0] $end
$var wire 1 8 PCSrcE $end
$var wire 32 9 PCPlus4W [31:0] $end
$var wire 32 : PCPlus4M [31:0] $end
$var wire 32 ; PCPlus4F_Fed [31:0] $end
$var wire 32 < PCPlus4E [31:0] $end
$var wire 32 = PCPlus4D [31:0] $end
$var wire 32 > PCE [31:0] $end
$var wire 32 ? PCD [31:0] $end
$var wire 32 @ PC [31:0] $end
$var wire 1 A MemWriteM $end
$var wire 1 B MemWriteE $end
$var wire 1 C JumpE $end
$var wire 32 D InstrD [31:0] $end
$var wire 32 E ImmExtE [31:0] $end
$var wire 2 F ForwardBE [1:0] $end
$var wire 2 G ForwardAE [1:0] $end
$var wire 1 H FlushE $end
$var wire 1 I FlushD $end
$var wire 1 J BranchE $end
$var wire 2 K ALUSrcBE [1:0] $end
$var wire 1 L ALUSrcAE $end
$var wire 32 M ALUResultW [31:0] $end
$var wire 32 N ALUResultM [31:0] $end
$var wire 4 O ALUControlE [3:0] $end
$scope module Decode $end
$var wire 4 P ALUControlE [3:0] $end
$var wire 1 L ALUSrcAE $end
$var wire 2 Q ALUSrcBE [1:0] $end
$var wire 1 J BranchE $end
$var wire 32 R ImmExtE [31:0] $end
$var wire 1 C JumpE $end
$var wire 1 B MemWriteE $end
$var wire 32 S PCE [31:0] $end
$var wire 32 T PCPlus4E [31:0] $end
$var wire 32 U RD1E [31:0] $end
$var wire 32 V RD2E [31:0] $end
$var wire 5 W RDE [4:0] $end
$var wire 5 X RS1E [4:0] $end
$var wire 5 Y RS2E [4:0] $end
$var wire 1 . RegWriteE $end
$var wire 2 Z ResultSrcE [1:0] $end
$var wire 5 [ Rs1D [4:0] $end
$var wire 5 \ Rs2D [4:0] $end
$var wire 1 ! clk $end
$var wire 1 " rst $end
$var wire 1 H clr $end
$var wire 32 ] ResultW [31:0] $end
$var wire 2 ^ ResultSrcD [1:0] $end
$var wire 1 , RegWriteW $end
$var wire 1 _ RegWriteD $end
$var wire 5 ` RdD [4:0] $end
$var wire 5 a RS2D [4:0] $end
$var wire 5 b RS1D [4:0] $end
$var wire 5 c RDW [4:0] $end
$var wire 32 d RD2D [31:0] $end
$var wire 32 e RD1D [31:0] $end
$var wire 32 f PCPlus4D [31:0] $end
$var wire 32 g PCD [31:0] $end
$var wire 1 h MemWriteD $end
$var wire 1 i JumpD $end
$var wire 32 j InstrD [31:0] $end
$var wire 3 k ImmSrcD [2:0] $end
$var wire 32 l ImmExtD [31:0] $end
$var wire 1 m BranchD $end
$var wire 2 n ALUSrcBD [1:0] $end
$var wire 1 o ALUSrcAD $end
$var wire 4 p ALUControlD [3:0] $end
$var reg 4 q ALUControlD_reg [3:0] $end
$var reg 1 L ALUSrcAD_reg $end
$var reg 2 r ALUSrcBD_reg [1:0] $end
$var reg 1 J BranchD_reg $end
$var reg 32 s ImmExtD_reg [31:0] $end
$var reg 1 C JumpD_reg $end
$var reg 1 t MemWriteD_reg $end
$var reg 32 u PCD_reg [31:0] $end
$var reg 32 v PCPlus4D_reg [31:0] $end
$var reg 32 w RD1D_reg [31:0] $end
$var reg 32 x RD2D_reg [31:0] $end
$var reg 5 y RDD_reg [4:0] $end
$var reg 5 z RS1D_reg [4:0] $end
$var reg 5 { RS2D_reg [4:0] $end
$var reg 1 | RegWriteD_reg $end
$var reg 2 } ResultSrcD_reg [1:0] $end
$scope module RegFile $end
$var wire 5 ~ A1 [4:0] $end
$var wire 5 !" A2 [4:0] $end
$var wire 1 ! clk $end
$var wire 1 " rst $end
$var wire 1 , WE3 $end
$var wire 32 "" WD3 [31:0] $end
$var wire 32 #" RD2 [31:0] $end
$var wire 32 $" RD1 [31:0] $end
$var wire 5 %" A3 [4:0] $end
$scope begin $ivl_for_loop0 $end
$var integer 32 &" i [31:0] $end
$upscope $end
$upscope $end
$scope module SignExtend $end
$var wire 25 '" In [31:7] $end
$var wire 3 (" ImmSrc [2:0] $end
$var reg 32 )" Imm_Ext [31:0] $end
$upscope $end
$scope module ctrl_unit $end
$var wire 7 *" Op [6:0] $end
$var wire 3 +" funct3 [2:0] $end
$var wire 7 ," funct7 [6:0] $end
$var wire 2 -" ResultSrc [1:0] $end
$var wire 1 _ RegWrite $end
$var wire 1 h MemWrite $end
$var wire 1 i Jump $end
$var wire 3 ." ImmSrc [2:0] $end
$var wire 1 m Branch $end
$var wire 2 /" ALUSrcB [1:0] $end
$var wire 1 o ALUSrcA $end
$var wire 2 0" ALUOp [1:0] $end
$var wire 4 1" ALUControl [3:0] $end
$scope module ALU_Decoder $end
$var wire 1 2" RtypeSub $end
$var wire 3 3" funct3 [2:0] $end
$var wire 7 4" funct7 [6:0] $end
$var wire 7 5" op [6:0] $end
$var wire 2 6" ALUOp [1:0] $end
$var reg 4 7" ALUControl [3:0] $end
$upscope $end
$scope module Main_Decoder $end
$var wire 7 8" Op [6:0] $end
$var wire 2 9" ResultSrc [1:0] $end
$var wire 1 _ RegWrite $end
$var wire 1 h MemWrite $end
$var wire 1 i Jump $end
$var wire 3 :" ImmSrc [2:0] $end
$var wire 1 m Branch $end
$var wire 2 ;" ALUSrcB [1:0] $end
$var wire 1 o ALUSrcA $end
$var wire 2 <" ALUOp [1:0] $end
$var reg 14 =" controls [13:0] $end
$upscope $end
$upscope $end
$upscope $end
$scope module Execute $end
$var wire 4 >" ALUControlE [3:0] $end
$var wire 1 L ALUSrcAE $end
$var wire 2 ?" ALUSrcBE [1:0] $end
$var wire 1 J BranchE $end
$var wire 32 @" ImmExtE [31:0] $end
$var wire 1 C JumpE $end
$var wire 1 B MemWriteE $end
$var wire 1 A MemWriteM $end
$var wire 32 A" PCE [31:0] $end
$var wire 32 B" PCPlus4E [31:0] $end
$var wire 32 C" PCPlus4M [31:0] $end
$var wire 1 8 PCSrcE $end
$var wire 32 D" RD1E [31:0] $end
$var wire 32 E" RD2E [31:0] $end
$var wire 5 F" RdE [4:0] $end
$var wire 5 G" RdM [4:0] $end
$var wire 1 . RegWriteE $end
$var wire 1 - RegWriteM $end
$var wire 2 H" ResultSrcE [1:0] $end
$var wire 2 I" ResultSrcM [1:0] $end
$var wire 32 J" WriteDataM [31:0] $end
$var wire 1 ! clk $end
$var wire 1 " rst $end
$var wire 1 K" ZeroE $end
$var wire 32 L" SrcBE [31:0] $end
$var wire 32 M" SrcAE_Inter [31:0] $end
$var wire 32 N" SrcAE [31:0] $end
$var wire 32 O" ResultW [31:0] $end
$var wire 32 P" RD2E_Mux [31:0] $end
$var wire 32 Q" PCTargetE [31:0] $end
$var wire 2 R" ForwardBE [1:0] $end
$var wire 2 S" ForwardAE [1:0] $end
$var wire 32 T" ALUResultM [31:0] $end
$var wire 32 U" ALUResultE [31:0] $end
$var reg 32 V" ALUResultM_reg [31:0] $end
$var reg 1 W" MemWriteM_reg $end
$var reg 32 X" PCPlus4M_reg [31:0] $end
$var reg 5 Y" RdM_reg [4:0] $end
$var reg 1 Z" RegWriteM_reg $end
$var reg 2 [" ResultSrcM_reg [1:0] $end
$var reg 32 \" WriteDataM_reg [31:0] $end
$scope module ADDER_E $end
$var wire 32 ]" a [31:0] $end
$var wire 32 ^" b [31:0] $end
$var wire 32 _" c [31:0] $end
$upscope $end
$scope module ALU_E $end
$var wire 32 `" A [31:0] $end
$var wire 4 a" ALUControl [3:0] $end
$var wire 1 K" Zero $end
$var wire 32 b" Sum [31:0] $end
$var wire 1 c" Negative $end
$var wire 32 d" B [31:0] $end
$var reg 1 e" OverFlow $end
$var reg 32 f" Result [31:0] $end
$upscope $end
$scope module MUX3X1_1 $end
$var wire 32 g" a [31:0] $end
$var wire 32 h" c [31:0] $end
$var wire 2 i" s [1:0] $end
$var wire 32 j" d [31:0] $end
$var wire 32 k" b [31:0] $end
$upscope $end
$scope module MUX3X1_2 $end
$var wire 32 l" a [31:0] $end
$var wire 32 m" c [31:0] $end
$var wire 2 n" s [1:0] $end
$var wire 32 o" d [31:0] $end
$var wire 32 p" b [31:0] $end
$upscope $end
$scope module MUX3X1_3 $end
$var wire 32 q" a [31:0] $end
$var wire 32 r" b [31:0] $end
$var wire 32 s" c [31:0] $end
$var wire 2 t" s [1:0] $end
$var wire 32 u" d [31:0] $end
$upscope $end
$upscope $end
$scope module Fetch $end
$var wire 32 v" PCD [31:0] $end
$var wire 32 w" PCPlus4D [31:0] $end
$var wire 32 x" PCPlus4F_Fed [31:0] $end
$var wire 1 ! clk $end
$var wire 1 " rst $end
$var wire 1 % en $end
$var wire 1 I clr $end
$var wire 32 y" PCPlus4F [31:0] $end
$var wire 32 z" PCF [31:0] $end
$var wire 32 {" InstrF [31:0] $end
$var wire 32 |" InstrD [31:0] $end
$var reg 32 }" InstrF_reg [31:0] $end
$var reg 32 ~" PCF_reg [31:0] $end
$var reg 32 !# PCPlus4F_reg [31:0] $end
$scope module I_MEM $end
$var wire 1 " rst $end
$var wire 32 "# RD [31:0] $end
$var wire 32 ## A [31:0] $end
$upscope $end
$scope module PCAdder $end
$var wire 32 $# b [31:0] $end
$var wire 32 %# c [31:0] $end
$var wire 32 &# a [31:0] $end
$upscope $end
$upscope $end
$scope module HazardUnit $end
$var wire 1 I FlushD $end
$var wire 1 H FlushE $end
$var wire 1 8 PCSrcE $end
$var wire 5 '# RdE [4:0] $end
$var wire 5 (# RdM [4:0] $end
$var wire 1 - RegWriteM $end
$var wire 1 )# ResultSrcE0 $end
$var wire 5 *# Rs1D [4:0] $end
$var wire 5 +# Rs1E [4:0] $end
$var wire 5 ,# Rs2D [4:0] $end
$var wire 5 -# Rs2E [4:0] $end
$var wire 1 % StallD $end
$var wire 1 $ StallF $end
$var wire 1 .# lwStall $end
$var wire 1 /# rst $end
$var wire 1 , RegWriteW $end
$var wire 5 0# RdW [4:0] $end
$var reg 2 1# ForwardAE [1:0] $end
$var reg 2 2# ForwardBE [1:0] $end
$upscope $end
$scope module Memory $end
$var wire 32 3# ALUResultM [31:0] $end
$var wire 1 A MemWriteM $end
$var wire 32 4# PCPlus4M [31:0] $end
$var wire 5 5# RdM [4:0] $end
$var wire 1 - RegWriteM $end
$var wire 1 , RegWriteW $end
$var wire 2 6# ResultSrcM [1:0] $end
$var wire 32 7# WriteDataM [31:0] $end
$var wire 1 ! clk $end
$var wire 1 " rst $end
$var wire 2 8# ResultSrcW [1:0] $end
$var wire 32 9# ReadDataW [31:0] $end
$var wire 32 :# ReadDataM [31:0] $end
$var wire 5 ;# RdW [4:0] $end
$var wire 32 <# PCPlus4W [31:0] $end
$var wire 32 =# ALUResultW [31:0] $end
$var reg 32 ># ALUResultW_reg [31:0] $end
$var reg 32 ?# PCPlus4W_reg [31:0] $end
$var reg 32 @# RdW_reg [31:0] $end
$var reg 32 A# ReadDataW_reg [31:0] $end
$var reg 1 B# RegWriteW_reg $end
$var reg 2 C# ResultSrcW_reg [1:0] $end
$scope module DataMem $end
$var wire 32 D# A [31:0] $end
$var wire 32 E# WD [31:0] $end
$var wire 1 A WE $end
$var wire 1 ! clk $end
$var wire 1 " rst $end
$var wire 32 F# RD [31:0] $end
$upscope $end
$upscope $end
$scope module Program_Counter $end
$var wire 32 G# PCPlus4F [31:0] $end
$var wire 1 8 PCSrcE $end
$var wire 32 H# PCTargetE [31:0] $end
$var wire 1 ! clk $end
$var wire 1 $ en $end
$var wire 1 " rst $end
$var wire 32 I# PC_Next [31:0] $end
$var reg 32 J# PC [31:0] $end
$scope module MUX_FETCH $end
$var wire 32 K# a [31:0] $end
$var wire 32 L# b [31:0] $end
$var wire 1 8 s $end
$var wire 32 M# c [31:0] $end
$upscope $end
$upscope $end
$scope module WriteBack $end
$var wire 32 N# ALUResultW [31:0] $end
$var wire 32 O# PCPlus4W [31:0] $end
$var wire 32 P# ReadDataW [31:0] $end
$var wire 2 Q# ResultSrcW [1:0] $end
$var wire 1 ! clk $end
$var wire 1 " rst $end
$var wire 32 R# ResultW [31:0] $end
$scope module result_mux $end
$var wire 32 S# a [31:0] $end
$var wire 32 T# b [31:0] $end
$var wire 32 U# c [31:0] $end
$var wire 2 V# s [1:0] $end
$var wire 32 W# d [31:0] $end
$upscope $end
$upscope $end
$upscope $end
$upscope $end
$enddefinitions $end
$comment Show the parameter values. $end
$dumpall
$end
#0
$dumpvars
b0 W#
b0 V#
b0 U#
b0 T#
b0 S#
b0 R#
b0 Q#
b0 P#
b0 O#
b0 N#
b100 M#
b0 L#
b100 K#
b0 J#
b100 I#
b0 H#
b100 G#
b0 F#
b0 E#
b0 D#
b0 C#
0B#
b0 A#
b0 @#
b0 ?#
b0 >#
b0 =#
b0 <#
b0 ;#
b0 :#
b0 9#
b0 8#
b0 7#
b0 6#
b0 5#
b0 4#
b0 3#
b0 2#
b0 1#
b0 0#
z/#
0.#
b0 -#
b0 ,#
b0 +#
b0 *#
0)#
b0 (#
b0 '#
b0 &#
b100 %#
b100 $#
b0 ##
b0 "#
b0 !#
b0 ~"
b0 }"
b0 |"
b0 {"
b0 z"
b100 y"
b100 x"
b0 w"
b0 v"
b0 u"
b0 t"
b0 s"
b0 r"
b0 q"
b0 p"
b0 o"
b0 n"
b0 m"
b0 l"
b0 k"
b0 j"
b0 i"
b0 h"
b0 g"
b0 f"
0e"
b0 d"
0c"
b0 b"
b0 a"
b0 `"
b0 _"
b0 ^"
b0 ]"
b0 \"
b0 ["
0Z"
b0 Y"
b0 X"
0W"
b0 V"
b0 U"
b0 T"
b0 S"
b0 R"
b0 Q"
b0 P"
b0 O"
b0 N"
b0 M"
b0 L"
1K"
b0 J"
b0 I"
b0 H"
b0 G"
b0 F"
b0 E"
b0 D"
b0 C"
b0 B"
b0 A"
b0 @"
b0 ?"
b0 >"
b0 ="
b0 <"
b0 ;"
b0 :"
b0 9"
b0 8"
b0 7"
b0 6"
b0 5"
b0 4"
b0 3"
02"
b0 1"
b0 0"
b0 /"
b0 ."
b0 -"
b0 ,"
b0 +"
b0 *"
b0 )"
b0 ("
b0 '"
b100000 &"
b0 %"
b0 $"
b0 #"
b0 ""
b0 !"
b0 ~
b0 }
0|
b0 {
b0 z
b0 y
b0 x
b0 w
b0 v
b0 u
0t
b0 s
b0 r
b0 q
b0 p
0o
b0 n
0m
b0 l
b0 k
b0 j
0i
0h
b0 g
b0 f
b0 e
b0 d
b0 c
b0 b
b0 a
b0 `
0_
b0 ^
b0 ]
b0 \
b0 [
b0 Z
b0 Y
b0 X
b0 W
b0 V
b0 U
b0 T
b0 S
b0 R
b0 Q
b0 P
b0 O
b0 N
b0 M
0L
b0 K
0J
0I
0H
b0 G
b0 F
b0 E
b0 D
0C
0B
0A
b0 @
b0 ?
b0 >
b0 =
b0 <
b100 ;
b0 :
b0 9
08
b0 7
b0 6
b0 5
b0 4
b0 3
b0 2
b0 1
b0 0
b0 /
0.
0-
0,
b0 +
b0 *
b0 )
b0 (
b0 '
b0 &
0%
0$
b0 #
0"
0!
$end
#5
b100 =
b100 f
b100 w"
b100 !#
1!
#10
0!
#15
b100 <
b100 T
b100 B"
b100 v
1!
#20
b100010100000000000010010011 {"
b100010100000000000010010011 "#
bx :#
bx F#
0!
1"
#25
1_
b1 n
b1 /"
b1 ;"
b10 0"
b10 6"
b10 <"
b1000101 l
b1000101 )"
b11111111111111111111111111111111 d
b11111111111111111111111111111111 #"
b10000010000100 ="
b100010011 {"
b100010011 "#
b10001010000000000001 '"
b101 !"
b10 ,"
b10 4"
b10011 *"
b10011 5"
b10011 8"
b1 `
b101 &
b101 \
b101 ,#
b101 a
b1000 I#
b1000 M#
bx /
bx 9#
bx A#
bx P#
bx T#
b100 :
b100 C"
b100 4#
b100 X"
b100010100000000000010010011 D
b100010100000000000010010011 j
b100010100000000000010010011 |"
b100010100000000000010010011 }"
b1000 ;
b1000 x"
b1000 G#
b1000 K#
b1000 y"
b1000 %#
b100 @
b100 z"
b100 ##
b100 &#
b100 J#
1!
#30
0!
#35
0K"
b1000101 U"
b1000101 f"
b11111111111100001000000010010011 {"
b11111111111100001000000010010011 "#
b0 l
b0 )"
b0 d
b0 #"
b1000101 b"
b1100 I#
b1100 M#
b10 '"
b0 !"
b0 ,"
b0 4"
b10 `
b0 &
b0 \
b0 ,#
b0 a
b1000101 L"
b1000101 d"
b1000101 u"
b11111111111111111111111111111111 P"
b11111111111111111111111111111111 o"
b11111111111111111111111111111111 q"
b1100 ;
b1100 x"
b1100 G#
b1100 K#
b1100 y"
b1100 %#
b1000 @
b1000 z"
b1000 ##
b1000 &#
b1000 J#
b1000 =
b1000 f
b1000 w"
b1000 !#
b100 ?
b100 g
b100 v"
b100 ~"
b100010011 D
b100010011 j
b100010011 |"
b100010011 }"
b101 0
b101 Y
b101 -#
b101 {
b1 K
b1 Q
b1 r
b1 ?"
b1 t"
1.
1|
b1 4
b1 W
b1 y
b1 F"
b1 '#
b1000101 7
b1000101 Q"
b1000101 _"
b1000101 s"
b1000101 H#
b1000101 L#
b1000101 E
b1000101 R
b1000101 s
b1000101 @"
b1000101 ^"
b1000101 r"
b11111111111111111111111111111111 5
b11111111111111111111111111111111 V
b11111111111111111111111111111111 x
b11111111111111111111111111111111 E"
b11111111111111111111111111111111 l"
b100 9
b100 <#
b100 ?#
b100 O#
b100 U#
1!
#40
0!
#45
1K"
b0 U"
b0 f"
b0 b"
b0 L"
b0 d"
b0 u"
b11111111111111111111111111111111 l
b11111111111111111111111111111111 )"
b11111111111111111111111111111111 d
b11111111111111111111111111111111 #"
b11111111111111111111111111111111 e
b11111111111111111111111111111111 $"
b11111110001000001001111011100011 {"
b11111110001000001001111011100011 "#
b0 P"
b0 o"
b0 q"
b1111111111110000100000001 '"
b11111 !"
b1 ~
b1111111 ,"
b1111111 4"
b1 `
b11111 &
b11111 \
b11111 ,#
b11111 a
b1 '
b1 [
b1 *#
b1 b
b10000 I#
b10000 M#
b1 3
b1 G"
b1 (#
b1 5#
b1 Y"
b11111111111111111111111111111111 #
b11111111111111111111111111111111 J"
b11111111111111111111111111111111 7#
b11111111111111111111111111111111 E#
b11111111111111111111111111111111 \"
b1000101 N
b1000101 T"
b1000101 V"
b1000101 h"
b1000101 m"
b1000101 3#
b1000101 D#
1-
1Z"
b0 0
b0 Y
b0 -#
b0 {
b10 4
b10 W
b10 y
b10 F"
b10 '#
b1000 <
b1000 T
b1000 B"
b1000 v
b0 E
b0 R
b0 s
b0 @"
b0 ^"
b0 r"
b100 7
b100 Q"
b100 _"
b100 s"
b100 H#
b100 L#
b100 >
b100 S
b100 u
b100 A"
b100 ]"
b0 5
b0 V
b0 x
b0 E"
b0 l"
b1100 =
b1100 f
b1100 w"
b1100 !#
b1000 ?
b1000 g
b1000 v"
b1000 ~"
b11111111111100001000000010010011 D
b11111111111100001000000010010011 j
b11111111111100001000000010010011 |"
b11111111111100001000000010010011 }"
b10000 ;
b10000 x"
b10000 G#
b10000 K#
b10000 y"
b10000 %#
b1100 @
b1100 z"
b1100 ##
b1100 &#
b1100 J#
1!
#50
0!
#55
0K"
b1000100 U"
b1000100 f"
b1000101 N"
b1000101 `"
12"
0_
b10 k
b10 ("
b10 ."
b10 :"
b0 n
b0 /"
b0 ;"
1m
b1 0"
b1 6"
b1 <"
b1000100 b"
b1000101 M"
b1000101 j"
b10011 {"
b10011 "#
b11111111111111111111111111111100 l
b11111111111111111111111111111100 )"
b1 p
b1 1"
b1 7"
b100000001010 ="
b11111111111111111111111111111111 L"
b11111111111111111111111111111111 d"
b11111111111111111111111111111111 u"
b10100 I#
b10100 M#
b1111111000100000100111101 '"
b10 !"
b1 +"
b1 3"
b1100011 *"
b1100011 5"
b1100011 8"
b11101 `
b10 &
b10 \
b10 ,#
b10 a
b11111111111111111111111111111111 P"
b11111111111111111111111111111111 o"
b11111111111111111111111111111111 q"
b1 G
b1 S"
b1 i"
b1 1#
b1000101 (
b1000101 ]
b1000101 ""
b1000101 O"
b1000101 k"
b1000101 p"
b1000101 R#
b1000101 W#
b1 2
b1 c
b1 %"
b1 0#
b1 ;#
b10100 ;
b10100 x"
b10100 G#
b10100 K#
b10100 y"
b10100 %#
b10000 @
b10000 z"
b10000 ##
b10000 &#
b10000 J#
b10000 =
b10000 f
b10000 w"
b10000 !#
b1100 ?
b1100 g
b1100 v"
b1100 ~"
b11111110001000001001111011100011 D
b11111110001000001001111011100011 j
b11111110001000001001111011100011 |"
b11111110001000001001111011100011 }"
b11111 0
b11111 Y
b11111 -#
b11111 {
b1 1
b1 X
b1 +#
b1 z
b1 4
b1 W
b1 y
b1 F"
b1 '#
b1100 <
b1100 T
b1100 B"
b1100 v
b11111111111111111111111111111111 E
b11111111111111111111111111111111 R
b11111111111111111111111111111111 s
b11111111111111111111111111111111 @"
b11111111111111111111111111111111 ^"
b11111111111111111111111111111111 r"
b111 7
b111 Q"
b111 _"
b111 s"
b111 H#
b111 L#
b1000 >
b1000 S
b1000 u
b1000 A"
b1000 ]"
b11111111111111111111111111111111 5
b11111111111111111111111111111111 V
b11111111111111111111111111111111 x
b11111111111111111111111111111111 E"
b11111111111111111111111111111111 l"
b11111111111111111111111111111111 6
b11111111111111111111111111111111 U
b11111111111111111111111111111111 w
b11111111111111111111111111111111 D"
b11111111111111111111111111111111 g"
b1000 :
b1000 C"
b1000 4#
b1000 X"
b10 3
b10 G"
b10 (#
b10 5#
b10 Y"
b0 #
b0 J"
b0 7#
b0 E#
b0 \"
b0 N
b0 T"
b0 V"
b0 h"
b0 m"
b0 3#
b0 D#
1,
1B#
b1000101 M
b1000101 =#
b1000101 >#
b1000101 N#
b1000101 S#
b1 @#
1!
#60
0!
#65
b0 L"
b0 d"
b0 u"
b1000100 N"
b1000100 `"
b0 p
b0 1"
b0 7"
b0 P"
b0 o"
b0 q"
b1000100 M"
b1000100 j"
02"
1_
b0 k
b0 ("
b0 ."
b0 :"
b1 n
b1 /"
b1 ;"
0m
b10 0"
b10 6"
b10 <"
b1 F
b1 R"
b1 n"
b1 2#
b0 l
b0 )"
b0 d
b0 #"
b10000010000100 ="
b11111110000000000000111011100011 {"
b11111110000000000000111011100011 "#
b0 e
b0 $"
b0 (
b0 ]
b0 ""
b0 O"
b0 k"
b0 p"
b0 R#
b0 W#
b10 2
b10 c
b10 %"
b10 0#
b10 ;#
b10 G
b10 S"
b10 i"
b10 1#
b1000100 U"
b1000100 f"
b1000100 b"
b0 '"
b0 !"
b0 ~
b0 ,"
b0 4"
b0 +"
b0 3"
b10011 *"
b10011 5"
b10011 8"
b0 `
b0 &
b0 \
b0 ,#
b0 a
b0 '
b0 [
b0 *#
b0 b
b11000 I#
b11000 M#
b0 M
b0 =#
b0 >#
b0 N#
b0 S#
b1000 9
b1000 <#
b1000 ?#
b1000 O#
b1000 U#
b10 @#
b1100 :
b1100 C"
b1100 4#
b1100 X"
b1 3
b1 G"
b1 (#
b1 5#
b1 Y"
b11111111111111111111111111111111 #
b11111111111111111111111111111111 J"
b11111111111111111111111111111111 7#
b11111111111111111111111111111111 E#
b11111111111111111111111111111111 \"
b1000100 N
b1000100 T"
b1000100 V"
b1000100 h"
b1000100 m"
b1000100 3#
b1000100 D#
b10 0
b10 Y
b10 -#
b10 {
b1 O
b1 P
b1 q
b1 >"
b1 a"
b0 K
b0 Q
b0 r
b0 ?"
b0 t"
1J
0.
0|
b11101 4
b11101 W
b11101 y
b11101 F"
b11101 '#
b10000 <
b10000 T
b10000 B"
b10000 v
b11111111111111111111111111111100 E
b11111111111111111111111111111100 R
b11111111111111111111111111111100 s
b11111111111111111111111111111100 @"
b11111111111111111111111111111100 ^"
b11111111111111111111111111111100 r"
b1000 7
b1000 Q"
b1000 _"
b1000 s"
b1000 H#
b1000 L#
b1100 >
b1100 S
b1100 u
b1100 A"
b1100 ]"
b10100 =
b10100 f
b10100 w"
b10100 !#
b10000 ?
b10000 g
b10000 v"
b10000 ~"
b10011 D
b10011 j
b10011 |"
b10011 }"
b11000 ;
b11000 x"
b11000 G#
b11000 K#
b11000 y"
b11000 %#
b10100 @
b10100 z"
b10100 ##
b10100 &#
b10100 J#
1!
#70
0!
#75
b1 p
b1 1"
b1 7"
1K"
12"
0_
b10 k
b10 ("
b10 ."
b10 :"
b0 n
b0 /"
b0 ;"
1m
b1 0"
b1 6"
b1 <"
b0 N"
b0 `"
b10011 {"
b10011 "#
b11111111111111111111111111111100 l
b11111111111111111111111111111100 )"
b100000001010 ="
b0 M"
b0 j"
b11100 I#
b11100 M#
b1111111000000000000011101 '"
b1111111 ,"
b1111111 4"
b1100011 *"
b1100011 5"
b1100011 8"
b11101 `
b0 U"
b0 f"
b0 b"
b0 F
b0 R"
b0 n"
b0 2#
b0 G
b0 S"
b0 i"
b0 1#
b1000100 (
b1000100 ]
b1000100 ""
b1000100 O"
b1000100 k"
b1000100 p"
b1000100 R#
b1000100 W#
b1 2
b1 c
b1 %"
b1 0#
b1 ;#
b11100 ;
b11100 x"
b11100 G#
b11100 K#
b11100 y"
b11100 %#
b11000 @
b11000 z"
b11000 ##
b11000 &#
b11000 J#
b11000 =
b11000 f
b11000 w"
b11000 !#
b10100 ?
b10100 g
b10100 v"
b10100 ~"
b11111110000000000000111011100011 D
b11111110000000000000111011100011 j
b11111110000000000000111011100011 |"
b11111110000000000000111011100011 }"
b0 0
b0 Y
b0 -#
b0 {
b0 1
b0 X
b0 +#
b0 z
b0 O
b0 P
b0 q
b0 >"
b0 a"
b1 K
b1 Q
b1 r
b1 ?"
b1 t"
0J
1.
1|
b0 4
b0 W
b0 y
b0 F"
b0 '#
b10100 <
b10100 T
b10100 B"
b10100 v
b0 E
b0 R
b0 s
b0 @"
b0 ^"
b0 r"
b10000 7
b10000 Q"
b10000 _"
b10000 s"
b10000 H#
b10000 L#
b10000 >
b10000 S
b10000 u
b10000 A"
b10000 ]"
b0 5
b0 V
b0 x
b0 E"
b0 l"
b0 6
b0 U
b0 w
b0 D"
b0 g"
b10000 :
b10000 C"
b10000 4#
b10000 X"
b11101 3
b11101 G"
b11101 (#
b11101 5#
b11101 Y"
b0 #
b0 J"
b0 7#
b0 E#
b0 \"
0-
0Z"
b1000100 M
b1000100 =#
b1000100 >#
b1000100 N#
b1000100 S#
b1100 9
b1100 <#
b1100 ?#
b1100 O#
b1100 U#
b1 @#
1!
#80
0!
#85
xH
b0 p
b0 1"
b0 7"
xI
02"
1_
b0 k
b0 ("
b0 ."
b0 :"
b1 n
b1 /"
b1 ;"
0m
b10 0"
b10 6"
b10 <"
1K"
18
b0 l
b0 )"
b10000010000100 ="
b11101 2
b11101 c
b11101 %"
b11101 0#
b11101 ;#
b0 U"
b0 f"
b0 b"
b0 '"
b0 ,"
b0 4"
b10011 *"
b10011 5"
b10011 8"
b0 `
b10000 I#
b10000 M#
0,
0B#
b10000 9
b10000 <#
b10000 ?#
b10000 O#
b10000 U#
b11101 @#
b10100 :
b10100 C"
b10100 4#
b10100 X"
b0 3
b0 G"
b0 (#
b0 5#
b0 Y"
b0 N
b0 T"
b0 V"
b0 h"
b0 m"
b0 3#
b0 D#
1-
1Z"
b1 O
b1 P
b1 q
b1 >"
b1 a"
b0 K
b0 Q
b0 r
b0 ?"
b0 t"
1J
0.
0|
b11101 4
b11101 W
b11101 y
b11101 F"
b11101 '#
b11000 <
b11000 T
b11000 B"
b11000 v
b11111111111111111111111111111100 E
b11111111111111111111111111111100 R
b11111111111111111111111111111100 s
b11111111111111111111111111111100 @"
b11111111111111111111111111111100 ^"
b11111111111111111111111111111100 r"
b10000 7
b10000 Q"
b10000 _"
b10000 s"
b10000 H#
b10000 L#
b10100 >
b10100 S
b10100 u
b10100 A"
b10100 ]"
b11100 =
b11100 f
b11100 w"
b11100 !#
b11000 ?
b11000 g
b11000 v"
b11000 ~"
b10011 D
b10011 j
b10011 |"
b10011 }"
b100000 ;
b100000 x"
b100000 G#
b100000 K#
b100000 y"
b100000 %#
b11100 @
b11100 z"
b11100 ##
b11100 &#
b11100 J#
1!
#90
0!
